…
```r
paired_table = paired_data %>%        # save object paired_data
  select(country, year, lifeExp) %>%  # select vars interest
  pivot_wider(names_from = year,      # put years in columns
              values_from = lifeExp) %>% 
  mutate(
    dlifeExp = `2007` - `2002`        # difference in means
  )

paired_table
```

```
## # A tibble: 33 x 4
##    country          `2002` `2007` dlifeExp
##    <fct>             <dbl>  <dbl>    <dbl>
##  1 Afghanistan        42.1   43.8    1.70 
##  2 Bahrain            74.8   75.6    0.84 
##  3 Bangladesh         62.0   64.1    2.05 
##  4 Cambodia           56.8   59.7    2.97 
##  5 China              72.0   73.0    0.933
##  6 Hong Kong, China   81.5   82.2    0.713
##  7 India              62.9   64.7    1.82 
##  8 Indonesia          68.6   70.6    2.06 
##  9 Iran               69.5   71.0    1.51 
## 10 Iraq               57.0   59.5    2.50 
## # … with 23 more rows
```
…
